-- Copyright (C) 1991-2013 Altera Corporation
-- Your use of Altera Corporation's design tools, logic functions 
-- and other software and tools, and its AMPP partner logic 
-- functions, and any output files from any of the foregoing 
-- (including device programming or simulation files), and any 
-- associated documentation or information are expressly subject 
-- to the terms and conditions of the Altera Program License 
-- Subscription Agreement, Altera MegaCore Function License 
-- Agreement, or other applicable license agreement, including, 
-- without limitation, that your use is for the sole purpose of 
-- programming logic devices manufactured by Altera and sold by 
-- Altera or its authorized distributors.  Please refer to the 
-- applicable agreement for further details.

-- Quartus II generated Memory Initialization File (.mif)

WIDTH=16;
DEPTH=2048;

ADDRESS_RADIX=BIN;
DATA_RADIX=BIN;

CONTENT BEGIN
	000000000000  :   0000000000000000;
	000000000001  :   1000000100000001;
	000000000010  :   1000001000000001;
	000000000011  :   1100100011010000;
	000000000100  :   1101000100000000;
	000000000101  :   1100100011010000;
	000000000110  :   1010000111111101;
	[000000000111..011111111111]  :   0000000000000000;
END;
